20
228569150065 1
211421327491 1
919252724339 1
504759866532 1
595873942664 1
988808475766 1
498580144863 1
441454897857 1
907564288621 0
496954400043 0
713459943615 0
258317293172 0
197103476352 0
151173430038 0
063794395936 0
502906565456 0
790539816536 0
346602334981 0
559203789779 0
622818801178 0
